<svg xmlns="http://www.w3.org/2000/svg" width="307" height="64" viewBox="0 0 307 64">
  <text id="Custom_Calceus" data-name="Custom Calceus" transform="translate(0 49)" fill="#fff" font-size="48" font-family="KapelkaNew, Kapelka New"><tspan x="0" y="0">Custom Calceus</tspan></text>
</svg>
